[gd_scene load_steps=4 format=2]

[ext_resource path="res://Movement_2/tileset_grass.tres" type="TileSet" id=1]
[ext_resource path="res://_ASSETS/GUI/bg.png" type="Texture" id=2]
[ext_resource path="res://Character/player.tscn" type="PackedScene" id=3]


[node name="MainTestScene" type="Node2D"]

[node name="water" type="TileMap" parent="."]
mode = 1
tile_set = ExtResource( 1 )
cell_size = Vector2( 64, 32 )
format = 1
tile_data = PoolIntArray( 65625, 5, 0, 65626, 5, 0, 131161, 5, 0, 131162, 5, 0, 131163, 5, 0, 196696, 5, 0, 196697, 5, 0, 196698, 5, 0, 196699, 5, 0, 262232, 5, 0, 262233, 5, 0, 262234, 5, 0, 327767, 5, 0, 327768, 5, 0, 327769, 5, 0, 327770, 5, 0, 393300, 5, 0, 393301, 5, 0, 393303, 5, 0, 393304, 5, 0, 458834, 5, 0, 458835, 5, 0, 458836, 5, 0, 458837, 5, 0, 458839, 5, 0, 524371, 5, 0, 524372, 5, 0, 524373, 5, 0, 524374, 5, 0, 524375, 5, 0, 589907, 5, 0, 589908, 5, 0, 589909, 5, 0, 655442, 5, 0, 655443, 5, 0, 655444, 5, 0, 720978, 5, 0, 720979, 5, 0, 786513, 5, 0, 786514, 5, 0, 852048, 5, 0, 852049, 5, 0, 852050, 5, 0, 917574, 5, 0, 917575, 5, 0, 917576, 5, 0, 917577, 5, 0, 917578, 5, 0, 917579, 5, 0, 917580, 5, 0, 917581, 5, 0, 917582, 5, 0, 917583, 5, 0, 917584, 5, 0, 983111, 5, 0, 983112, 5, 0, 983113, 5, 0, 983114, 5, 0, 983115, 5, 0, 983116, 5, 0, 983117, 5, 0, 983118, 5, 0, 983119, 5, 0, 1048649, 5, 0, 1048650, 5, 0, 1048651, 5, 0, 1048652, 5, 0, 1048653, 5, 0, 1048654, 5, 0, 1114186, 5, 0, 1114187, 5, 0, 1114188, 5, 0, 1114189, 5, 0, 1114190, 5, 0, 1179722, 5, 0, 1179723, 5, 0, 1179724, 5, 0, 1179725, 5, 0, 1179726, 5, 0 )

[node name="Level_0" type="TileMap" parent="."]
mode = 1
tile_set = ExtResource( 1 )
cell_size = Vector2( 64, 32 )
format = 1
tile_data = PoolIntArray( -327605, 0, 0, -327604, 0, 0, -327603, 0, 0, -262069, 0, 0, -262067, 0, 0, -262066, 0, 0, -262065, 0, 0, -196533, 0, 0, -196532, 0, 0, -196531, 0, 0, -196530, 0, 0, -196529, 0, 0, -196528, 0, 0, -196527, 0, 0, -130996, 0, 0, -130995, 0, 0, -130994, 0, 0, -130992, 0, 0, -130991, 0, 0, -130990, 0, 0, -65459, 0, 0, -65458, 0, 0, -65457, 0, 0, -65456, 0, 0, -65455, 0, 0, -65454, 0, 0, -65453, 0, 0, 0, 120, 0, 77, 0, 0, 78, 0, 0, 79, 0, 0, 80, 0, 0, 81, 0, 0, 82, 0, 0, 83, 0, 0, 84, 0, 0, 85, 0, 0, 86, 0, 0, 87, 4, 0, 65608, 0, 0, 65614, 0, 0, 65615, 0, 0, 65616, 0, 0, 65617, 0, 0, 65618, 0, 0, 65619, 0, 0, 65620, 0, 0, 65621, 0, 0, 65622, 0, 0, 65623, 4, 0, 131145, 0, 0, 131150, 0, 0, 131151, 0, 0, 131152, 0, 65536, 131153, 0, 65536, 131154, 0, 0, 131155, 0, 0, 131156, 0, 0, 131157, 0, 0, 131158, 4, 12, 131159, 4, 65536, 196683, 0, 0, 196684, 0, 0, 196685, 0, 0, 196686, 0, 0, 196687, 0, 65536, 196688, 0, 65536, 196689, 0, 65536, 196690, 0, 0, 196691, 4, 8, 196692, 4, 1, 196693, 6, 1, 196694, 4, 65536, 262219, 0, 0, 262220, 0, 65536, 262221, 0, 65536, 262222, 0, 65536, 262223, 0, 65536, 262224, 0, 0, 262225, 0, 0, 262226, 4, 8, 262227, 4, 65536, 262229, 6, 5, 327755, 0, 0, 327756, 0, 65536, 327757, 0, 65536, 327758, 0, 65536, 327759, 0, 0, 327760, 4, 12, 327761, 4, 1, 327762, 4, 65540, 327765, 6, 5, 393291, 0, 0, 393292, 0, 0, 393293, 0, 65536, 393294, 0, 0, 393295, 0, 0, 393296, 4, 0, 393301, 6, 5, 458819, 0, 0, 458827, 0, 0, 458828, 0, 0, 458829, 0, 65536, 458830, 0, 0, 458831, 0, 0, 458832, 4, 15, 458833, 4, 65539, 524356, 0, 0, 524357, 0, 0, 524363, 0, 0, 524364, 0, 0, 524365, 0, 65536, 524366, 0, 0, 524367, 0, 0, 524368, 0, 0, 524369, 4, 4, 589892, 0, 0, 589893, 0, 0, 589894, 0, 0, 589895, 0, 0, 589896, 0, 0, 589897, 0, 0, 589898, 0, 0, 589899, 0, 0, 589900, 0, 0, 589901, 0, 65536, 589902, 0, 0, 589903, 0, 0, 589904, 0, 0, 589905, 4, 4, 655429, 0, 0, 655430, 0, 65536, 655431, 0, 65536, 655432, 0, 65536, 655433, 0, 65536, 655434, 0, 65536, 655435, 0, 65536, 655436, 0, 65536, 655437, 0, 65536, 655438, 0, 0, 655439, 4, 8, 655440, 4, 5, 655441, 4, 65540, 720965, 0, 0, 720966, 0, 0, 720967, 0, 0, 720968, 0, 0, 720969, 0, 0, 720970, 0, 0, 720971, 0, 0, 720972, 0, 0, 720973, 0, 0, 720974, 4, 8, 720975, 4, 65540, 786501, 4, 5, 786502, 4, 5, 786503, 4, 5, 786504, 4, 5, 786505, 4, 5, 786506, 4, 5, 786507, 4, 5, 786508, 4, 5, 786509, 4, 5, 786510, 4, 65540 )

[node name="Level_1" type="TileMap" parent="."]
z_as_relative = false
mode = 1
tile_set = ExtResource( 1 )
cell_size = Vector2( 64, 32 )
cell_y_sort = true
format = 1
tile_data = PoolIntArray( -393142, 4, 65538, -393141, 4, 3, -393139, 1, 3, -393138, 1, 65539, -327606, 4, 2, -327605, 0, 1, -327604, 0, 1, -327603, 0, 1, -327602, 1, 0, -262069, 0, 1, -262067, 0, 1, -262066, 1, 4, -196534, 1, 2, -196533, 0, 1, -196532, 0, 1, -196531, 0, 1, -196530, 1, 0, -130998, 1, 65537, -130997, 1, 1, -130996, 1, 5, -130995, 1, 5, -130994, 1, 65536, 65603, 0, 0, 65604, 0, 0, 65605, 0, 0, 65606, 0, 0, 65607, 0, 0, 65608, 0, 0, 65609, 1, 0, 131139, 0, 0, 131144, 0, 0, 131145, 8, 1, 196675, 0, 0, 196678, 10, 0, 196680, 0, 0, 262211, 0, 0, 262216, 0, 0, 262217, 8, 0, 327747, 0, 0, 327752, 0, 0, 393283, 0, 0, 393284, 0, 0, 393285, 0, 0, 393286, 0, 0, 393287, 0, 0, 393288, 0, 0, 393289, 1, 0, 458819, 1, 1, 458820, 15, 1, 458822, 15, 0, 458824, 1, 1, 458825, 1, 65536 )

[node name="BG" type="Sprite" parent="."]
visible = false
position = Vector2( 3394.01, 1461.69 )
scale = Vector2( 10, 10 )
z_index = -4096
texture = ExtResource( 2 )

[node name="player" parent="." instance=ExtResource( 3 )]
position = Vector2( 2330, 1210 )

[node name="Camera2D" type="Camera2D" parent="player"]
current = true
limit_left = -1000
limit_top = -1000
limit_right = 7000
limit_bottom = 2800
limit_smoothed = true
smoothing_enabled = true
drag_margin_left = 0.0
drag_margin_top = 0.0
drag_margin_right = 0.0
drag_margin_bottom = 0.0
