[gd_resource type="AtlasTexture" load_steps=2 format=2]

[ext_resource path="res://_ASSETS/human.png" type="Texture" id=1]


[resource]
flags = 7
atlas = ExtResource( 1 )
region = Rect2( 1967, 150, 28, 136 )
margin = Rect2( 113, 324, 228, 376 )
