[gd_resource type="AtlasTexture" load_steps=2 format=2]

[ext_resource path="res://_ASSETS/human.png" type="Texture" id=1]


[resource]
flags = 7
atlas = ExtResource( 1 )
region = Rect2( 426, 296, 65, 128 )
margin = Rect2( 96, 334, 191, 384 )
