[gd_resource type="AtlasTexture" load_steps=2 format=2]

[ext_resource path="res://_ASSETS/human.png" type="Texture" id=1]

[resource]
flags = 4
atlas = ExtResource( 1 )
region = Rect2( 663, 588, 75, 119 )
margin = Rect2( 89, 339, 181, 393 )
