[gd_resource type="AtlasTexture" load_steps=2 format=2]

[ext_resource path="res://_ASSETS/human.png" type="Texture" id=1]

[resource]
flags = 4
atlas = ExtResource( 1 )
region = Rect2( 1407, 588, 61, 105 )
margin = Rect2( 97, 353, 195, 407 )
