[gd_resource type="AtlasTexture" load_steps=2 format=2]

[ext_resource path="res://Movement/isotiles.png" type="Texture" id=1]


[resource]
flags = 7
atlas = ExtResource( 1 )
region = Rect2( 544, 0, 128, 76 )
margin = Rect2( 0, 180, 0, 180 )
