[gd_resource type="AtlasTexture" load_steps=2 format=2]

[ext_resource path="res://_ASSETS/human.png" type="Texture" id=1]

[resource]
flags = 4
atlas = ExtResource( 1 )
region = Rect2( 998, 440, 76, 115 )
margin = Rect2( 94, 334, 180, 397 )
